/usscouts/mb/mb001.asp,"Camping"
/usscouts/mb/mb160.asp,"Citizenship in Society"
/usscouts/mb/mb002.asp,"Citizenship in the Community"
/usscouts/mb/mb003.asp,"Citizenship in the Nation"
/usscouts/mb/mb004.asp,"Citizenship in the World"
/usscouts/mb/mb005.asp,"Communication"
/usscouts/mb/mb038.asp,"Cooking"
/usscouts/mb/mb039.asp,"Cycling"
/usscouts/mb/mb006.asp,"Emergency Preparedness"
/usscouts/mb/mb007.asp,"Environmental Science"
/usscouts/mb/mb129.asp,"Family Life"
/usscouts/mb/mb008.asp,"First Aid"
/usscouts/mb/mb061.asp,"Hiking"
/usscouts/mb/mb009.asp,"Lifesaving"
/usscouts/mb/mb010.asp,"Personal Fitness"
/usscouts/mb/mb011.asp,"Personal Management"
/usscouts/mb/mb152.asp,"Sustainability"
/usscouts/mb/mb014.asp,"Swimming"
/usscouts/mb/mb015.asp,"AMERICAN BUSINESS"
/usscouts/mb/mb017.asp,"AMERICAN CULTURES"
/usscouts/mb/mb016.asp,"AMERICAN HERITAGE"
/usscouts/mb/mb121.asp,"AMERICAN LABOR"
/usscouts/mb/mb018.asp,"ANIMAL SCIENCE"
/usscouts/mb/mb158.asp,"ANIMATION"
/usscouts/mb/mb132.asp,"ARCHAEOLOGY"
/usscouts/mb/mb019.asp,"ARCHERY"
/usscouts/mb/mb020.asp,"ARCHITECTURE"
/usscouts/mb/mb021.asp,"ART"
/usscouts/mb/mb022.asp,"ASTRONOMY"
/usscouts/mb/mb023.asp,"ATHLETICS"
/usscouts/mb/mb127.asp,"AUTOMOTIVE MAINTENANCE"
/usscouts/mb/mb025.asp,"AVIATION"
/usscouts/mb/mb026.asp,"BACKPACKING"
/usscouts/mb/mb027.asp,"BASKETRY"
/usscouts/mb/mb029.asp,"BIRD STUDY"
/usscouts/mb/mb032.asp,"BUGLING"
/usscouts/mb/mb001.asp,"CAMPING"
/usscouts/mb/mb033.asp,"CANOEING"
/usscouts/mb/mb034.asp,"CHEMISTRY"
/usscouts/mb/mb147.asp,"CHESS"
/usscouts/mb/mb160.asp,"CITIZENSHIP IN SOCIETY"
/usscouts/mb/mb002.asp,"CITIZENSHIP IN THE COMMUNITY"
/usscouts/mb/mb003.asp,"CITIZENSHIP IN THE NATION"
/usscouts/mb/mb004.asp,"CITIZENSHIP IN THE WORLD"
/usscouts/mb/mb133.asp,"CLIMBING"
/usscouts/mb/mb035.asp,"COIN COLLECTING"
/usscouts/mb/mb128.asp,"COLLECTIONS"
/usscouts/mb/mb005.asp,"COMMUNICATION"
/usscouts/mb/mb137.asp,"COMPOSITE MATERIALS"
/usscouts/mb/mb038.asp,"COOKING"
/usscouts/mb/mb131.asp,"CRIME PREVENTION"
/usscouts/mb/mb039.asp,"CYCLING"
/usscouts/mb/mb040.asp,"DENTISTRY"
/usscouts/mb/mb154.asp,"DIGITAL TECHNOLOGY"
/usscouts/mb/mb060.asp,"DISABILITIES AWARENESS"
/usscouts/mb/mb041.asp,"DOG CARE"
/usscouts/mb/mb042.asp,"DRAFTING"
/usscouts/mb/mb043.asp,"ELECTRICITY"
/usscouts/mb/mb044.asp,"ELECTRONICS"
/usscouts/mb/mb006.asp,"EMERGENCY PREPAREDNESS"
/usscouts/mb/mb045.asp,"ENERGY"
/usscouts/mb/mb046.asp,"ENGINEERING"
/usscouts/mb/mb134.asp,"ENTREPRENEURSHIP"
/usscouts/mb/mb007.asp,"ENVIRONMENTAL SCIENCE"
/usscouts/mb/mb159.asp,"EXPLORATION"
/usscouts/mb/mb129.asp,"FAMILY LIFE"
/usscouts/mb/mb048.asp,"FARM MECHANICS"
/usscouts/mb/mb049.asp,"FINGERPRINTING"
/usscouts/mb/mb050.asp,"FIRE SAFETY"
/usscouts/mb/mb008.asp,"FIRST AID"
/usscouts/mb/mb051.asp,"FISH AND WILDLIFE MANAGEMENT"
/usscouts/mb/mb052.asp,"FISHING"
/usscouts/mb/mb136.asp,"FLY FISHING"
/usscouts/mb/mb054.asp,"FORESTRY"
/usscouts/mb/mb151.asp,"GAME DESIGN"
/usscouts/mb/mb055.asp,"GARDENING"
/usscouts/mb/mb056.asp,"GENEALOGY"
/usscouts/mb/mb145.asp,"GEOCACHING"
/usscouts/mb/mb058.asp,"GEOLOGY"
/usscouts/mb/mb059.asp,"GOLF"
/usscouts/mb/mb122.asp,"GRAPHIC ARTS"
/usscouts/mb/mb161.asp,"HEALTH CARE PROFESSIONS"
/usscouts/mb/mb061.asp,"HIKING"
/usscouts/mb/mb062.asp,"HOME REPAIRS"
/usscouts/mb/mb063.asp,"HORSEMANSHIP"
/usscouts/mb/mb064.asp,"INDIAN LORE"
/usscouts/mb/mb065.asp,"INSECT STUDY"
/usscouts/mb/mb144.asp,"INVENTING"
/usscouts/mb/mb066.asp,"JOURNALISM"
/usscouts/mb/mb149.asp,"KAYAKING"
/usscouts/mb/mb067.asp,"LANDSCAPE ARCHITECTURE"
/usscouts/mb/mb068.asp,"LAW"
/usscouts/mb/mb069.asp,"LEATHERWORK"
/usscouts/mb/mb009.asp,"LIFESAVING"
/usscouts/mb/mb071.asp,"MAMMAL STUDY"
/usscouts/mb/mb074.asp,"METALWORK"
/usscouts/mb/mb155.asp,"MINING IN SOCIETY"
/usscouts/mb/mb075.asp,"MODEL DESIGN AND BUILDING"
/usscouts/mb/mb076.asp,"MOTORBOATING"
/usscouts/mb/mb156.asp,"MOVIEMAKING"
/usscouts/mb/mb077.asp,"MUSIC"
/usscouts/mb/mb078.asp,"NATURE"
/usscouts/mb/mb024.asp,"NUCLEAR SCIENCE"
/usscouts/mb/mb079.asp,"OCEANOGRAPHY"
/usscouts/mb/mb080.asp,"ORIENTEERING"
/usscouts/mb/mb081.asp,"PAINTING"
/usscouts/mb/mb010.asp,"PERSONAL FITNESS"
/usscouts/mb/mb011.asp,"PERSONAL MANAGEMENT"
/usscouts/mb/mb082.asp,"PETS"
/usscouts/mb/mb083.asp,"PHOTOGRAPHY"
/usscouts/mb/mb084.asp,"PIONEERING"
/usscouts/mb/mb085.asp,"PLANT SCIENCE"
/usscouts/mb/mb086.asp,"PLUMBING"
/usscouts/mb/mb087.asp,"POTTERY"
/usscouts/mb/mb153.asp,"PROGRAMMING"
/usscouts/mb/mb089.asp,"PUBLIC HEALTH"
/usscouts/mb/mb090.asp,"PUBLIC SPEAKING"
/usscouts/mb/mb091.asp,"PULP AND PAPER"
/usscouts/mb/mb093.asp,"RADIO"
/usscouts/mb/mb094.asp,"RAILROADING"
/usscouts/mb/mb095.asp,"READING"
/usscouts/mb/mb096.asp,"REPTILE AND AMPHIBIAN STUDY"
/usscouts/mb/mb123.asp,"RIFLE SHOOTING"
/usscouts/mb/mb146.asp,"ROBOTICS"
/usscouts/mb/mb098.asp,"ROWING"
/usscouts/mb/mb012.asp,"SAFETY"
/usscouts/mb/mb099.asp,"SALESMANSHIP"
/usscouts/mb/mb100.asp,"SCHOLARSHIP"
/usscouts/mb/mb143.asp,"SCOUTING HERITAGE"
/usscouts/mb/mb138.asp,"SCUBA DIVING"
/usscouts/mb/mb101.asp,"SCULPTURE"
/usscouts/mb/mb150.asp,"SEARCH AND RESCUE"
/usscouts/mb/mb124.asp,"SHOTGUN SHOOTING"
/usscouts/mb/mb157.asp,"SIGNS, SIGNALS, AND CODES"
/usscouts/mb/mb103.asp,"SKATING"
/usscouts/mb/mb105.asp,"SMALL-BOAT SAILING"
/usscouts/mb/mb135.asp,"SNOW SPORTS"
/usscouts/mb/mb106.asp,"SOIL AND WATER CONSERVATION"
/usscouts/mb/mb107.asp,"SPACE EXPLORATION"
/usscouts/mb/mb013.asp,"SPORTS"
/usscouts/mb/mb108.asp,"STAMP COLLECTING"
/usscouts/mb/mb109.asp,"SURVEYING"
/usscouts/mb/mb152.asp,"SUSTAINABILITY"
/usscouts/mb/mb014.asp,"SWIMMING"
/usscouts/mb/mb110.asp,"TEXTILE"
/usscouts/mb/mb111.asp,"THEATER"
/usscouts/mb/mb112.asp,"TRAFFIC SAFETY"
/usscouts/mb/mb113.asp,"TRUCK TRANSPORTATION"
/usscouts/mb/mb114.asp,"VETERINARY MEDICINE"
/usscouts/mb/mb115.asp,"WATER SPORTS"
/usscouts/mb/mb116.asp,"WEATHER"
/usscouts/mb/mb148.asp,"WELDING"
/usscouts/mb/mb125.asp,"WHITEWATER"
/usscouts/mb/mb117.asp,"WILDERNESS SURVIVAL"
/usscouts/mb/mb118.asp,"WOOD CARVING"
/usscouts/mb/mb119.asp,"WOODWORK"
